%YAML 1.1
%TAG !u! tag:unity3d.com,2011:
--- !u!65 &8785589282217088156
BoxCollider:
  m_ObjectHideFlags: 0
  m_CorrespondingSourceObject: {fileID: 0}
  m_PrefabInstance: {fileID: 0}
  m_PrefabAsset: {fileID: 0}
  m_GameObject: {fileID: 6362971428938900938}
  m_Material: {fileID: 0}
  m_IsTrigger: 1
  m_Enabled: 1
  serializedVersion: 2
  m_Size: {x: 0.87635005, y: 1.7193431, z: 0.75894153}
  m_Center: {x: 0, y: 0.85967153, z: 0}
--- !u!1001 &7004510258664572823
PrefabInstance:
  m_ObjectHideFlags: 0
  serializedVersion: 2
  m_Modification:
    m_TransformParent: {fileID: 0}
    m_Modifications:
    - target: {fileID: 537611271886628387, guid: 7d0968f4f0333d9469060ce2af54328e,
        type: 3}
      propertyPath: m_Mesh
      value: 
      objectReference: {fileID: 4300000, guid: 0d4dc18442ed9d14698239a5a964f27f, type: 3}
    - target: {fileID: 2876849664031932617, guid: 7d0968f4f0333d9469060ce2af54328e,
        type: 3}
      propertyPath: m_LocalPosition.x
      value: 0
      objectReference: {fileID: 0}
    - target: {fileID: 2876849664031932617, guid: 7d0968f4f0333d9469060ce2af54328e,
        type: 3}
      propertyPath: m_LocalPosition.y
      value: 0
      objectReference: {fileID: 0}
    - target: {fileID: 2876849664031932617, guid: 7d0968f4f0333d9469060ce2af54328e,
        type: 3}
      propertyPath: m_LocalPosition.z
      value: 0
      objectReference: {fileID: 0}
    - target: {fileID: 2876849664031932617, guid: 7d0968f4f0333d9469060ce2af54328e,
        type: 3}
      propertyPath: m_LocalRotation.x
      value: 0.7071068
      objectReference: {fileID: 0}
    - target: {fileID: 2876849664031932617, guid: 7d0968f4f0333d9469060ce2af54328e,
        type: 3}
      propertyPath: m_LocalRotation.y
      value: 0
      objectReference: {fileID: 0}
    - target: {fileID: 2876849664031932617, guid: 7d0968f4f0333d9469060ce2af54328e,
        type: 3}
      propertyPath: m_LocalRotation.z
      value: 0
      objectReference: {fileID: 0}
    - target: {fileID: 2876849664031932617, guid: 7d0968f4f0333d9469060ce2af54328e,
        type: 3}
      propertyPath: m_LocalRotation.w
      value: 0.7071068
      objectReference: {fileID: 0}
    - target: {fileID: 2876849664031932617, guid: 7d0968f4f0333d9469060ce2af54328e,
        type: 3}
      propertyPath: m_RootOrder
      value: 0
      objectReference: {fileID: 0}
    - target: {fileID: 2876849664031932617, guid: 7d0968f4f0333d9469060ce2af54328e,
        type: 3}
      propertyPath: m_LocalEulerAnglesHint.x
      value: 90
      objectReference: {fileID: 0}
    - target: {fileID: 2876849664031932617, guid: 7d0968f4f0333d9469060ce2af54328e,
        type: 3}
      propertyPath: m_LocalEulerAnglesHint.y
      value: 0
      objectReference: {fileID: 0}
    - target: {fileID: 2876849664031932617, guid: 7d0968f4f0333d9469060ce2af54328e,
        type: 3}
      propertyPath: m_LocalEulerAnglesHint.z
      value: 0
      objectReference: {fileID: 0}
    - target: {fileID: 4141293182951678557, guid: 7d0968f4f0333d9469060ce2af54328e,
        type: 3}
      propertyPath: m_Name
      value: King
      objectReference: {fileID: 0}
    - target: {fileID: 4314402314424687793, guid: 7d0968f4f0333d9469060ce2af54328e,
        type: 3}
      propertyPath: m_StitchLightmapSeams
      value: 0
      objectReference: {fileID: 0}
    - target: {fileID: 4314402314424687793, guid: 7d0968f4f0333d9469060ce2af54328e,
        type: 3}
      propertyPath: m_Materials.Array.data[0]
      value: 
      objectReference: {fileID: 2100000, guid: adefce1589f7e584ebd7c6d597a46ee9, type: 2}
    - target: {fileID: 6125634088425644150, guid: 7d0968f4f0333d9469060ce2af54328e,
        type: 3}
      propertyPath: unitType
      value: 6
      objectReference: {fileID: 0}
    - target: {fileID: 6125634088425644150, guid: 7d0968f4f0333d9469060ce2af54328e,
        type: 3}
      propertyPath: movement
      value: 
      objectReference: {fileID: 11400000, guid: 14aa68e8d7cb1ce4b8ec3161ae0bab80,
        type: 2}
    m_RemovedComponents:
    - {fileID: 8205994120591167821, guid: 7d0968f4f0333d9469060ce2af54328e, type: 3}
  m_SourcePrefab: {fileID: 100100000, guid: 7d0968f4f0333d9469060ce2af54328e, type: 3}
--- !u!1 &6362971428938900938 stripped
GameObject:
  m_CorrespondingSourceObject: {fileID: 4141293182951678557, guid: 7d0968f4f0333d9469060ce2af54328e,
    type: 3}
  m_PrefabInstance: {fileID: 7004510258664572823}
  m_PrefabAsset: {fileID: 0}
